Assignment 8: Visualization - Making a bar race
…
Make a bar race using a dataset of your own interest. You may use the dataset that we use in class (https://covidtracking.com/data/download/all-states-history.csv) but you should make a different bar racev from ones in the slides.

c <- read_csv('https://covidtracking.com/data/download/all-states-history.csv')

## Warning: One or more parsing issues, see `problems()` for details

c$weekday = wday(c$date)
drop_na(c, hospitalized)

## # A tibble: 12,382 x 42
##    date       state death deathConfirmed deathIncrease deathProbable
##    <date>     <chr> <dbl>          <dbl>         <dbl>         <dbl>
##  1 2021-03-07 AK      305             NA             0            NA
##  2 2021-03-07 AL    10148           7963            -1          2185
##  3 2021-03-07 AR     5319           4308            22          1011
##  4 2021-03-07 AZ    16328          14403             5          1925
##  5 2021-03-07 CO     5989           5251             3           735
##  6 2021-03-07 FL    32266             NA            66            NA
##  7 2021-03-07 GA    17906          15598             1          2308
##  8 2021-03-07 HI      445            445             1            NA
##  9 2021-03-07 ID     1879           1652             3           227
## 10 2021-03-07 IN    12737          12310            11           427
## # ... with 12,372 more rows, and 36 more variables: hospitalized <dbl>,
## #   hospitalizedCumulative <dbl>, hospitalizedCurrently <dbl>,
## #   hospitalizedIncrease <dbl>, inIcuCumulative <dbl>, inIcuCurrently <dbl>,
## #   negative <dbl>, negativeIncrease <dbl>, negativeTestsAntibody <dbl>,
## #   negativeTestsPeopleAntibody <lgl>, negativeTestsViral <dbl>,
## #   onVentilatorCumulative <dbl>, onVentilatorCurrently <dbl>, positive <dbl>,
## #   positiveCasesViral <dbl>, positiveIncrease <dbl>, positiveScore <dbl>, ...
…
