Assignment 9: Visualization - Revealing a graph
…
Use the dataset by of covid 19 by WHO at https://covid19.who.int/WHO-COVID-19-global-data.csv. Find the three countries with the most numbers of deaths by Covid-19.

Hint:

Use filter to select the most current date

Pipe with arrange(-Cumulative_deaths) to rank the data by the number of cumulative deaths

df <- read_csv('https://covid19.who.int/WHO-COVID-19-global-data.csv')
d <- df %>% filter(Date_reported=='2021-10-20') %>% arrange(-Cumulative_deaths)
d

## # A tibble: 237 x 8
##    Date_reported Country_code Country      WHO_region New_cases Cumulative_cases
##    <date>        <chr>        <chr>        <chr>          <dbl>            <dbl>
##  1 2021-10-20    US           United Stat~ AMRO          137310         44787306
##  2 2021-10-20    BR           Brazil       AMRO            7446         21651910
##  3 2021-10-20    IN           India        SEARO          14623         34108996
##  4 2021-10-20    MX           Mexico       AMRO            1413          3758469
##  5 2021-10-20    RU           Russian Fed~ EURO           34073          8094825
##  6 2021-10-20    PE           Peru         AMRO             387          2190396
##  7 2021-10-20    ID           Indonesia    SEARO            914          4237201
##  8 2021-10-20    GB           The United ~ EURO           43324          8541196
##  9 2021-10-20    IT           Italy        EURO            2695          4722188
## 10 2021-10-20    CO           Colombia     AMRO            1043          4982575
## # ... with 227 more rows, and 2 more variables: New_deaths <dbl>,
## #   Cumulative_deaths <dbl>
…
